digraph G {
node [shape=box];
"world" [label="world"];
"workpiece" [label="workpiece"];
"base_link" [label="base_link"];
"base" [label="base"];
"shoulder_link" [label="shoulder_link"];
"upper_arm_link" [label="upper_arm_link"];
"forearm_link" [label="forearm_link"];
"wrist_1_link" [label="wrist_1_link"];
"wrist_2_link" [label="wrist_2_link"];
"wrist_3_link" [label="wrist_3_link"];
"ee_link" [label="ee_link"];
"tool0" [label="tool0"];
node [shape=ellipse, color=blue, fontcolor=blue];
"world" -> "workpiece_joint" [label="xyz: 0 0 0 \nrpy: 0 -0 0"]
"workpiece_joint" -> "workpiece"
"world" -> "world_joint" [label="xyz: 0 0 0 \nrpy: 0 -0 0"]
"world_joint" -> "base_link"
"base_link" -> "base_link-base_fixed_joint" [label="xyz: 0 0 0 \nrpy: 0 0 3.14159"]
"base_link-base_fixed_joint" -> "base"
"base_link" -> "shoulder_pan_joint" [label="xyz: 0 0 0.089159 \nrpy: 0 -0 -3.14159"]
"shoulder_pan_joint" -> "shoulder_link"
"shoulder_link" -> "shoulder_lift_joint" [label="xyz: 0 0 0 \nrpy: 1.5708 -0 0"]
"shoulder_lift_joint" -> "upper_arm_link"
"upper_arm_link" -> "elbow_joint" [label="xyz: -0.425 0 0 \nrpy: 0 -0 0"]
"elbow_joint" -> "forearm_link"
"forearm_link" -> "wrist_1_joint" [label="xyz: -0.39225 0 0.10915 \nrpy: 0 -0 0"]
"wrist_1_joint" -> "wrist_1_link"
"wrist_1_link" -> "wrist_2_joint" [label="xyz: 0 -0.09465 -1.9413e-11 \nrpy: 1.5708 -0 0"]
"wrist_2_joint" -> "wrist_2_link"
"wrist_2_link" -> "wrist_3_joint" [label="xyz: 0 0.0823 -1.688e-11 \nrpy: -1.5708 -2.06823e-13 2.06823e-13"]
"wrist_3_joint" -> "wrist_3_link"
"wrist_3_link" -> "ee_fixed_joint" [label="xyz: 0 0 0 \nrpy: 0 -1.5708 1.5708"]
"ee_fixed_joint" -> "ee_link"
"wrist_3_link" -> "wrist_3_passive_joint" [label="xyz: 0 0 0 \nrpy: 0 -0 0"]
"wrist_3_passive_joint" -> "tool0"
}
