<?xml version="1.0"?>
<robot xmlns:xacro="http://wiki.ros.org/xacro"
       name="ur5" >

  <xacro:arg name="transmission_hw_interface" default="hardware_interface/PositionJointInterface"/>

  <!-- common stuff -->
  <xacro:include filename="$(find ur_description)/urdf/common.gazebo.xacro" />

  <!-- ur5 -->
  <xacro:include filename="$(find ur_description)/urdf/ur5.urdf.xacro" />
 
 <!-- coloring from the table -->
  <material name="grey">
    <color rgba="0.75 0.75 0.75 1"/>
  </material>

  <!-- arm -->
  <xacro:arg name="kinematics_config" default="$(find ur_description)/config/ur5_default.yaml"/>
  <xacro:ur5_robot prefix="" joint_limited="false"
    transmission_hw_interface="$(arg transmission_hw_interface)"
    kinematics_file="${load_yaml('$(arg kinematics_config)')}"
  />


 <!-- workpiece -->
 <!-- the closer edge of the workpiece is at x=0.5m -->
 <link name="workpiece">
    <visual>
      <origin rpy="0.0 0.0 0.0" xyz="0.55 0.0 0.0"/>
      <geometry>
      <box size="0.1 0.5 -0.01"/>
      </geometry>
      <material name="grey"/>
    </visual>
  </link>

<joint name="workpiece_joint" type="fixed">
    <parent link="world" />
    <child link = "workpiece" />
    <origin xyz="0.0 0.0 0.0" rpy="0.0 0.0 0.0" />
  </joint>

 <link name="world">  
 </link>

  <joint name="world_joint" type="fixed">
    <parent link="world" />
    <child link = "base_link" />
    <origin xyz="0.0 0.0 0.0" rpy="0.0 0.0 0.0" />
  </joint>

</robot>
